Chapter 5 Green performance | Sustainable finance: an introduction
…
library(tidyverse)
library(lubridate)
library(kableExtra)
load("ESG_data.RData")
q <- 0.5
ESG_data |> 
  filter(year(date) > 2002, year(date) < 2024) |>
  filter(source == "Provider_B") |>
  group_by(date) |>                # This means that all operations will be run date by date, separately
  mutate(type = if_else(esg_metric > quantile(esg_metric, q, na.rm = T), # This creates the sorts...
                        "Green",                                         # ...Green if high ESG...
                        "Brown")) |>                                     # ...Brown if not
  select(name, date, close, esg_metric, type)                            # Select a few columns

## # A tibble: 113,285 × 5
## # Groups:   date [252]
##    name                     date       close esg_metric type 
##    <chr>                    <date>     <dbl>      <dbl> <chr>
##  1 Agilent Technologies Inc 2003-01-31 11.1        24.6 Brown
##  2 Agilent Technologies Inc 2003-02-28  8.89       24.6 Brown
##  3 Agilent Technologies Inc 2003-03-31  8.86       24.6 Brown
##  4 Agilent Technologies Inc 2003-04-30 10.8        24.6 Brown
##  5 Agilent Technologies Inc 2003-05-31 12.2        24.6 Brown
##  6 Agilent Technologies Inc 2003-06-30 13.2        24.6 Brown
##  7 Agilent Technologies Inc 2003-07-31 14.6        24.6 Brown
##  8 Agilent Technologies Inc 2003-08-31 16.4        24.6 Brown
##  9 Agilent Technologies Inc 2003-09-30 14.9        24.6 Brown
## 10 Agilent Technologies Inc 2003-10-31 16.8        28.5 Green
## # ℹ 113,275 more rows
…
q <- 0.5
ESG_data |> 
  filter(year(date) > 2002, year(date) < 2024) |>
  filter(source == "Provider_B") |>
  group_by(date) |>                # This means that all operations will be run date by date, separately
  mutate(type = if_else(esg_metric > quantile(esg_metric, q, na.rm = T), # This creates the sorts...
                        "Green",                                         # ...Green if high ESG...
                        "Brown")) |>                                     # ...Brown if not
  ungroup() |>
  group_by(name) |>                                                      # Now we group by firm
  mutate(return = close / lag(close) - 1) |>                             # Here we compute the return
  filter(return < 3) |>                                                  # Remove crazy returns
  select(name, date, close, esg_metric, type, return)

## # A tibble: 112,791 × 6
## # Groups:   name [494]
##    name                     date       close esg_metric type    return
##    <chr>                    <date>     <dbl>      <dbl> <chr>    <dbl>
##  1 Agilent Technologies Inc 2003-02-28  8.89       24.6 Brown -0.199  
##  2 Agilent Technologies Inc 2003-03-31  8.86       24.6 Brown -0.00379
##  3 Agilent Technologies Inc 2003-04-30 10.8        24.6 Brown  0.218  
##  4 Agilent Technologies Inc 2003-05-31 12.2        24.6 Brown  0.132  
##  5 Agilent Technologies Inc 2003-06-30 13.2        24.6 Brown  0.0783 
##  6 Agilent Technologies Inc 2003-07-31 14.6        24.6 Brown  0.112  
##  7 Agilent Technologies Inc 2003-08-31 16.4        24.6 Brown  0.119  
##  8 Agilent Technologies Inc 2003-09-30 14.9        24.6 Brown -0.0909 
##  9 Agilent Technologies Inc 2003-10-31 16.8        28.5 Green  0.127  
## 10 Agilent Technologies Inc 2003-11-30 19.1        28.5 Green  0.135  
## # ℹ 112,781 more rows
…
